<svg width="170" height="170" viewBox="0 0 170 170" fill="none" xmlns="http://www.w3.org/2000/svg">
<path d="M168.654 84.577C168.654 131.011 131.011 168.654 84.577 168.654C38.1426 168.654 0.5 131.011 0.5 84.577C0.5 38.1426 38.1426 0.5 84.577 0.5C131.011 0.5 168.654 38.1426 168.654 84.577Z" fill="white" stroke="black"/>
<path d="M154.904 64.4668C154.18 66.9751 152.732 69.1251 151.285 71.4542C149.475 74.5001 147.665 77.5459 146.037 80.5917C144.227 83.9958 142.779 87.5792 141.331 90.9833C140.97 92.0583 140.427 92.9541 139.16 93.1333C137.893 93.3125 137.169 92.4166 136.445 91.5208C134.998 89.7291 134.455 87.7583 133.912 85.6083C133.007 82.5625 131.921 79.3375 130.835 76.2917C129.93 73.9626 128.664 71.6334 127.578 69.3043C127.397 68.9459 127.216 68.7668 126.854 68.4084C127.216 69.3043 127.397 70.0209 127.759 70.9167C129.569 76.2917 130.654 82.025 130.835 87.7583C131.197 93.3125 131.016 99.0458 129.93 104.6C129.026 108.542 127.759 112.304 125.587 115.708C121.063 123.233 114.367 127.533 105.681 128.966C102.966 129.325 100.433 129.504 97.7182 129.146C97.5372 129.146 97.3562 129.146 97.1753 129.146C96.9943 129.862 96.8133 130.579 96.6323 131.296C95.1846 135.058 93.013 138.104 88.8507 139.537C86.3172 140.433 83.7836 140.254 81.2501 139C77.2688 137.029 75.2781 133.625 74.1923 129.683C74.1923 129.504 74.0113 129.325 74.0113 129.146C73.4684 129.146 72.7446 129.325 72.2017 129.325C58.81 130.041 47.59 122.696 42.8848 110.154C40.7132 104.242 39.9893 98.1499 40.1703 91.8791C40.3513 88.6541 40.5322 85.25 40.8942 82.025C41.2561 78.2625 42.161 74.6792 43.2468 71.0959C43.0658 71.2751 42.8848 71.4542 42.8848 71.8126C41.6181 74.5001 40.1703 77.3667 39.0845 80.0542C37.9987 82.5625 37.4558 85.25 36.551 87.7583C36.008 89.1916 35.4651 90.625 34.3793 91.8791C32.5697 93.85 30.9409 93.4916 29.8551 91.1625C28.7693 88.6541 27.6835 86.1458 26.5977 83.6375C24.4261 78.9792 21.8925 74.3209 18.8161 70.0209C17.5493 68.2293 16.6445 66.4376 16.1016 64.2876C16.1016 63.571 16.1016 63.0335 16.1016 62.3168C16.8254 61.0626 17.1874 59.6293 18.0922 58.3751C20.0829 55.5085 22.4354 53.3585 25.15 51.2085C27.8645 49.0585 30.76 47.0877 33.6555 45.2961C36.7319 43.3252 40.1703 41.8919 43.7897 41.3544C47.771 40.8169 51.9332 40.4586 56.0955 40.8169C59.3529 40.9961 62.6104 41.3544 65.6868 42.6086C66.2297 42.7877 66.5917 42.7877 66.9536 42.6086C70.7539 40.6377 74.7352 39.3836 78.8975 38.8461C80.1642 38.6669 81.612 38.4878 82.8788 38.3086C84.5075 38.3086 86.1362 38.3086 87.9459 38.3086C88.1268 38.3086 88.4888 38.4878 88.6698 38.4878C93.5559 38.8461 98.442 39.9211 102.785 42.0711C104.233 42.7877 105.5 42.9669 107.129 42.4294C112.377 40.8169 117.806 40.8169 123.235 41.1752C126.673 41.3544 130.111 42.0711 133.369 43.5044C139.16 46.1919 144.408 49.9544 149.113 54.4335C151.466 56.7627 153.818 59.271 154.904 62.496C154.904 63.0335 154.904 63.7501 154.904 64.4668ZM102.061 45.2961C101.88 45.1169 101.699 45.1169 101.518 44.9377C95.3656 42.2502 89.0317 41.1752 82.3359 41.7127C77.8117 42.0711 73.6494 43.1461 69.4871 45.1169C69.1252 45.2961 68.9442 45.4752 68.9442 45.8335C68.7633 46.9085 68.4013 47.8044 68.0394 48.8794C66.9536 51.2085 65.3249 53.1793 63.5152 54.971C61.3436 57.121 58.81 58.7335 56.0955 59.9876C54.6478 60.7043 53.2 61.6001 51.7523 62.3168C51.5713 62.496 51.2094 62.6751 51.0284 63.0335C50.3045 64.4668 49.5807 65.7209 49.0377 67.1543C45.5994 74.6792 44.1516 82.7417 43.9706 90.9833C43.7897 96.7166 44.1516 102.629 46.1423 108.183C49.2187 117.5 55.5526 123.591 65.5058 125.741C69.3062 126.458 72.9255 126.458 76.7259 125.383C79.4404 124.487 81.612 123.054 82.8788 120.546C83.2407 119.829 83.7836 119.112 84.3265 118.575C85.4123 117.321 86.6791 117.321 87.7649 118.575C88.3078 119.291 88.8507 120.008 89.2127 120.725C90.2985 122.875 92.1081 124.129 94.2798 125.025C98.0801 126.458 102.061 126.458 106.043 125.741C113.462 124.308 119.072 120.546 122.873 114.096C124.32 111.587 125.406 108.9 126.13 106.033C127.578 100.479 127.759 94.9249 127.578 89.3708C127.578 88.2958 127.397 87.2208 127.397 85.7875C127.216 86.1458 127.035 86.1458 127.035 86.325C125.768 88.6541 123.778 90.0875 121.425 90.9833C117.987 92.2375 114.548 92.5958 110.929 92.0583C104.233 91.1625 99.3469 87.7583 95.7275 82.2042C93.9178 79.5167 92.832 76.65 92.1081 73.4251C91.0223 68.2293 91.2033 63.2126 93.3749 58.3751C94.4607 56.046 96.0894 54.2543 97.5372 52.2835C99.1659 50.1335 100.976 47.9835 102.061 45.2961ZM108.576 75.0376C108.576 73.2459 107.129 71.8126 105.319 71.8126C103.509 71.8126 102.061 73.2459 102.061 75.0376C102.061 76.8292 103.509 78.2625 105.319 78.2625C107.129 78.2625 108.576 76.8292 108.576 75.0376Z" fill="black"/>
<path d="M102.594 45.6688C101.465 48.3124 99.5834 50.4273 97.702 52.5422C96.0087 54.4809 94.3154 56.2433 93.3746 58.5345C91.1169 63.2931 90.9288 68.2279 92.0576 73.3389C92.8102 76.5113 93.9391 79.3312 95.8205 81.9748C99.5834 87.4384 104.851 90.787 111.625 91.6682C115.388 92.1969 118.962 91.8444 122.537 90.6107C124.983 89.7295 127.052 88.1433 128.369 86.0284C128.369 85.8522 128.558 85.8522 128.746 85.4997C128.746 86.7334 128.934 87.7909 128.934 89.0246C129.122 94.4881 128.934 100.128 127.429 105.415C126.676 108.235 125.547 110.879 124.042 113.346C120.091 119.515 114.071 123.392 106.545 124.802C102.406 125.507 98.2664 125.507 94.3154 124.097C92.0576 123.216 90.1762 121.982 89.0473 119.867C88.671 119.162 88.1066 118.457 87.5422 117.752C86.4133 116.518 85.0963 116.518 83.9674 117.752C83.403 118.281 82.8386 118.986 82.4623 119.691C80.9571 122.158 78.6994 123.568 76.0654 124.449C72.3025 125.507 68.3514 125.507 64.4004 124.802C54.0525 122.687 47.6556 116.695 44.269 107.53C42.3875 102.067 42.0112 96.4268 42.0112 90.6107C42.1994 82.5036 43.8927 74.5726 47.2793 67.1704C47.8437 65.7605 48.5963 64.5268 49.3489 63.1168C49.537 62.9406 49.7251 62.5881 50.1014 62.4119C51.6066 61.7069 53.1117 60.8257 54.6169 60.1207C57.6272 58.887 60.0731 57.477 62.3308 55.1859C64.2123 53.4235 65.9056 51.4848 67.0344 49.1936C67.4107 48.3124 67.787 47.2549 67.9751 46.1975C68.1633 45.845 68.1633 45.6688 68.5396 45.4925C72.6788 43.5538 77.1942 42.4964 81.8978 42.1439C88.8592 41.6152 95.4442 42.6726 101.841 45.3163C102.217 45.4925 102.406 45.4925 102.594 45.6688ZM85.4726 88.8483C83.9674 88.8483 82.6504 89.0246 81.1453 89.0246C77.7587 89.377 74.3721 90.082 71.3617 92.0207C67.4107 94.4881 66.2819 98.013 67.9751 102.067C69.8566 106.296 73.055 109.116 77.3824 111.055C82.2741 113.346 87.1659 113.522 92.0576 111.584C97.1375 109.645 100.9 106.473 102.97 101.714C104.475 98.1892 103.534 95.0168 100.524 92.7257C99.5834 92.0207 98.4545 91.492 97.5138 90.9632C93.5628 89.2008 89.6117 88.8483 85.4726 88.8483ZM65.7174 78.8025C67.9751 78.8025 69.8566 77.04 69.6684 74.9251C69.6684 72.8102 67.787 71.224 65.7174 71.224C63.4597 71.224 61.5782 72.9864 61.5782 75.1014C61.5782 77.04 63.4597 78.8025 65.7174 78.8025Z" fill="white"/>
<path d="M108.637 75.3225C108.637 77.3788 107.403 79.0239 105.861 79.0239C104.318 79.0239 103.084 77.3788 103.084 75.3225C103.084 73.2662 104.318 71.6211 105.861 71.6211C107.403 71.6211 108.637 73.2662 108.637 75.3225Z" fill="white"/>
<path d="M85.5295 90.1289C89.5212 90.1289 93.3314 90.618 97.1416 92.0852C98.2302 92.5743 99.1374 93.0634 100.045 93.7155C102.948 95.8348 103.855 98.7693 102.403 102.03C100.407 106.595 96.7787 109.529 91.8799 111.159C87.1625 112.952 82.2636 112.626 77.7277 110.67C73.736 108.877 70.4701 106.268 68.6557 102.356C67.0228 98.6062 68.1114 95.3457 71.9216 93.0634C74.8246 91.4331 77.9091 90.618 81.3564 90.2919C82.8079 90.1289 84.078 90.1289 85.5295 90.1289Z" fill="black"/>
<path d="M66.1566 79.023C64.0907 79.023 62.5413 77.0863 62.3691 74.5039C62.3691 71.9215 64.0907 69.7695 66.1566 69.7695C68.2225 69.7695 69.7719 71.9215 69.7719 74.2887C69.7719 76.8711 68.2225 79.023 66.1566 79.023Z" fill="black"/>
</svg>
